graph dm {
	a [label="Mineração de dados"];
	b [label="Atividade Preditiva"];
	c [label="Atividade Descritiva"];
	d [label="Classificação"];
	e [label="Regressão"];
	f [label="Regras de Associação"];
	g [label=Clustering];
	h [label="Sumarização"];
	a -- b;
	a -- c;
	b -- d;
	b -- e;
	c -- f;
	c -- g;
	c -- h;
}
